ETC3250 ASSIGNMENT 4
…
Here we will fit a random forest model, using the randomForest package.

Use 1000 trees, using a numeric response so that predictions will be a number between 0-1, and set importance=TRUE. (Ignore the warning about not having enough distinct values to use regression.)

Compute the error for the test set, and for each class. Consider a proportion 0.2 or greater to indicate that the customer will purchase a caravan.

##      rf.pred
##          0    1  Sum
##   0   1655  156 1811
##   1    101   28  129
##   Sum 1756  184 1940

What are the 6 most important variables? Make a plot of any that are different from those chosen by gbm. How does the set of variables compare with those chosen by gbm.

## # A tibble: 85 x 3
##   `%IncMSE` IncNodePurity var     
##       <dbl>         <dbl> <chr>   
## 1  0.00357           6.77 MOSTYPE 
## 2  0.00127           6.16 PBRAND  
## 3  0.00197           5.42 PPERSAUT
## 4  0.000659          4.59 APERSAUT
## 5  0.00271           4.34 MKOOPKLA
## 6  0.00173           3.90 MOPLHOOG
## #  with 79 more rows
…
