ETC3250 Assignment 4
…
Use 1000 trees, using a numeric response so that predictions will be a number between 0-1, and set importance=TRUE. (Ignore the warning about not having enough distinct values to use regression.)

Compute the error for the test set, and for each class. Consider a proportion 0.2 or greater to indicate that the customer will purchase a caravan.

##      rf.pred
##          0    1  Sum
##   0   1668  161 1829
##   1     83   28  111
##   Sum 1751  189 1940

Overall=(89+167)/1940=0.1319588, Non-purchasers=167/1824=0.09155702, Purchasers=89/116=0.0.7672414

What are the 6 most important variables? Make a plot of any that are different from those chosen by gbm. How does the set of variables compare with those chosen by gbm.

## # A tibble: 85 x 3
##   `%IncMSE` IncNodePurity var     
##       <dbl>         <dbl> <chr>   
## 1  0.00396           7.34 MOSTYPE 
## 2  0.000943          6.92 PBRAND  
## 3  0.00198           6.26 PPERSAUT
## 4 -0.000177          4.71 APERSAUT
## 5  0.00175           4.60 MBERMIDD
## 6  0.00268           4.25 MOPLLAAG
## #  with 79 more rows
…
